; ### Klipper Pressure Advance Calibration Pattern ###
; -------------------------------------------
;
; Printer: ClownShoes
; Filament: paramount abs black
; Created: Sat Oct 22 2022 11:11:55 GMT-0400 (Eastern Daylight Time)
;
; Settings Printer:
; Filament Diameter = 1.75 mm
; Nozzle Diameter = 0.4 mm
; Start G-code = ; M112 ; Refer to https://bit.ly/3q1dChR
; M190 S110 ; <-- SET BED TEMPERATURE HERE - Wait to heat bed
; M109 S240 ; <-- SET NOZZLE TEMPERATURE HERE - Wait to heat extruder for homing accuracy
; G28 ; Home all axis
; G32 ; Home all axis, tram gantry
; G90 ; Use absolute positioning
; G1 Z5 F100 ; Move to safe Z
; BED_MESH_CALIBRATE ; Create mesh
; PRINT_START
; ; PRINT_START EXTRUDER=240 BED=110 ; If using parameter-ized PRINT_START
; 
; End G-code = ; PRINT_END
; 
; Retraction Distance = 0.75 mm
; Layer Height = 0.25 mm
; Fan Speed = 0 %
; Z-axis Offset = 0 mm
;
; Settings Print Bed:
; Bed Size X = 350 mm
; Bed Size Y = 350 mm
;
; Settings Speed:
; Slow Printing Speed = 300 mm/min
; Fast Printing Speed = 6000 mm/min
; Movement Speed = 30000 mm/min
; Retract Speed = 1800 mm/min
; Unretract Speed = 1800 mm/min
; Printing Acceleration = 3000 mm/s^2
;
; Settings Pattern:
; Starting Value Factor = 0
; Ending Value Factor = 0.1
; Factor Stepping = 0.005
; Test Line Spacing = 5 mm
; Test Line Length Slow = 20 mm
; Test Line Length Fast = 40 mm
; Print Pattern = Standard
; Print Frame = true
; Number Lines = true
; Print Size X = 98 mm
; Print Size Y = 125 mm
; Print Rotation = 0 degree
;
; Settings Advance:
; Nozzle / Line Ratio = 1.2
; Use FWRETRACT = false
; Extrusion Multiplier = 0.92
; Prime Nozzle = true
; Prime Extrusion Multiplier = 2.5
; Prime Speed = 1800
; Dwell Time = 0 s
;
; prepare printing
;
M190 S110 ; <-- SET BED TEMPERATURE HERE - Wait to heat bed
M109 S240 ; <-- SET NOZZLE TEMPERATURE HERE - Wait to heat extruder for homing accuracy

; Default from https://realdeuce.github.io/Voron/PA/pressure_advance.html
; but I have all these embedded as part of PRINT_START
; G28 ; Home all axis
; G32 ; Home all axis, tram gantry
; G90 ; Use absolute positioning
; G1 Z5 F100 ; Move to safe Z
; BED_MESH_CALIBRATE ; Create mesh

PRINT_START
; PRINT_START EXTRUDER=240 BED=110 ; If using parameter-ized PRINT_START

G21 ; Millimeter units
G90 ; Absolute XYZ
M83 ; Relative E
SET_VELOCITY_LIMIT ACCEL=3000 ACCEL_TO_DECEL=1500 ; Acceleration
G92 E0 ; Reset extruder distance
M106 S0
G1 X175 Y175 F30000 ; move to start
G1 Z0.25 F300 ; Move to layer height
;
; print anchor frame
G1 E0.75 F1800 ; un-retract
G1 X136 Y109.5 F30000 ; move to start
G1 X136 Y215.5 E5.35182 F300 ; print line
G1 X136.48 Y215.5 F30000 ; move to start
G1 X136.48 Y109.5 E5.35182 F300 ; print line
G1 E-0.75 F1800 ; retract
G1 X216 Y109.5 F30000 ; move to start
G1 E0.75 F1800 ; un-retract
G1 X216 Y215.5 E5.35182 F300 ; print line
G1 X215.52 Y215.5 F30000 ; move to start
G1 X215.52 Y109.5 E5.35182 F300 ; print line
G1 E-0.75 F1800 ; retract
;
; start the Test pattern
;
G1 X136 Y112.5 F30000 ; move to start
SET_PRESSURE_ADVANCE ADVANCE=0 ; set Pressure Advance
M117 K0 ; 
G1 E0.75 F1800 ; un-retract
G1 X156 Y112.5 E0.91798 F300 ; print line
G1 X196 Y112.5 E1.83596 F6000 ; print line
G1 X216 Y112.5 E0.91798 F300 ; print line
G1 E-0.75 F1800 ; retract
G1 X136 Y117.5 F30000 ; move to start
SET_PRESSURE_ADVANCE ADVANCE=0.005 ; set Pressure Advance
M117 K0.005 ; 
G1 E0.75 F1800 ; un-retract
G1 X156 Y117.5 E0.91798 F300 ; print line
G1 X196 Y117.5 E1.83596 F6000 ; print line
G1 X216 Y117.5 E0.91798 F300 ; print line
G1 E-0.75 F1800 ; retract
G1 X136 Y122.5 F30000 ; move to start
SET_PRESSURE_ADVANCE ADVANCE=0.01 ; set Pressure Advance
M117 K0.01 ; 
G1 E0.75 F1800 ; un-retract
G1 X156 Y122.5 E0.91798 F300 ; print line
G1 X196 Y122.5 E1.83596 F6000 ; print line
G1 X216 Y122.5 E0.91798 F300 ; print line
G1 E-0.75 F1800 ; retract
G1 X136 Y127.5 F30000 ; move to start
SET_PRESSURE_ADVANCE ADVANCE=0.015 ; set Pressure Advance
M117 K0.015 ; 
G1 E0.75 F1800 ; un-retract
G1 X156 Y127.5 E0.91798 F300 ; print line
G1 X196 Y127.5 E1.83596 F6000 ; print line
G1 X216 Y127.5 E0.91798 F300 ; print line
G1 E-0.75 F1800 ; retract
G1 X136 Y132.5 F30000 ; move to start
SET_PRESSURE_ADVANCE ADVANCE=0.02 ; set Pressure Advance
M117 K0.02 ; 
G1 E0.75 F1800 ; un-retract
G1 X156 Y132.5 E0.91798 F300 ; print line
G1 X196 Y132.5 E1.83596 F6000 ; print line
G1 X216 Y132.5 E0.91798 F300 ; print line
G1 E-0.75 F1800 ; retract
G1 X136 Y137.5 F30000 ; move to start
SET_PRESSURE_ADVANCE ADVANCE=0.025 ; set Pressure Advance
M117 K0.025 ; 
G1 E0.75 F1800 ; un-retract
G1 X156 Y137.5 E0.91798 F300 ; print line
G1 X196 Y137.5 E1.83596 F6000 ; print line
G1 X216 Y137.5 E0.91798 F300 ; print line
G1 E-0.75 F1800 ; retract
G1 X136 Y142.5 F30000 ; move to start
SET_PRESSURE_ADVANCE ADVANCE=0.03 ; set Pressure Advance
M117 K0.03 ; 
G1 E0.75 F1800 ; un-retract
G1 X156 Y142.5 E0.91798 F300 ; print line
G1 X196 Y142.5 E1.83596 F6000 ; print line
G1 X216 Y142.5 E0.91798 F300 ; print line
G1 E-0.75 F1800 ; retract
G1 X136 Y147.5 F30000 ; move to start
SET_PRESSURE_ADVANCE ADVANCE=0.035 ; set Pressure Advance
M117 K0.035 ; 
G1 E0.75 F1800 ; un-retract
G1 X156 Y147.5 E0.91798 F300 ; print line
G1 X196 Y147.5 E1.83596 F6000 ; print line
G1 X216 Y147.5 E0.91798 F300 ; print line
G1 E-0.75 F1800 ; retract
G1 X136 Y152.5 F30000 ; move to start
SET_PRESSURE_ADVANCE ADVANCE=0.04 ; set Pressure Advance
M117 K0.04 ; 
G1 E0.75 F1800 ; un-retract
G1 X156 Y152.5 E0.91798 F300 ; print line
G1 X196 Y152.5 E1.83596 F6000 ; print line
G1 X216 Y152.5 E0.91798 F300 ; print line
G1 E-0.75 F1800 ; retract
G1 X136 Y157.5 F30000 ; move to start
SET_PRESSURE_ADVANCE ADVANCE=0.045 ; set Pressure Advance
M117 K0.045 ; 
G1 E0.75 F1800 ; un-retract
G1 X156 Y157.5 E0.91798 F300 ; print line
G1 X196 Y157.5 E1.83596 F6000 ; print line
G1 X216 Y157.5 E0.91798 F300 ; print line
G1 E-0.75 F1800 ; retract
G1 X136 Y162.5 F30000 ; move to start
SET_PRESSURE_ADVANCE ADVANCE=0.05 ; set Pressure Advance
M117 K0.05 ; 
G1 E0.75 F1800 ; un-retract
G1 X156 Y162.5 E0.91798 F300 ; print line
G1 X196 Y162.5 E1.83596 F6000 ; print line
G1 X216 Y162.5 E0.91798 F300 ; print line
G1 E-0.75 F1800 ; retract
G1 X136 Y167.5 F30000 ; move to start
SET_PRESSURE_ADVANCE ADVANCE=0.055 ; set Pressure Advance
M117 K0.055 ; 
G1 E0.75 F1800 ; un-retract
G1 X156 Y167.5 E0.91798 F300 ; print line
G1 X196 Y167.5 E1.83596 F6000 ; print line
G1 X216 Y167.5 E0.91798 F300 ; print line
G1 E-0.75 F1800 ; retract
G1 X136 Y172.5 F30000 ; move to start
SET_PRESSURE_ADVANCE ADVANCE=0.06 ; set Pressure Advance
M117 K0.06 ; 
G1 E0.75 F1800 ; un-retract
G1 X156 Y172.5 E0.91798 F300 ; print line
G1 X196 Y172.5 E1.83596 F6000 ; print line
G1 X216 Y172.5 E0.91798 F300 ; print line
G1 E-0.75 F1800 ; retract
G1 X136 Y177.5 F30000 ; move to start
SET_PRESSURE_ADVANCE ADVANCE=0.065 ; set Pressure Advance
M117 K0.065 ; 
G1 E0.75 F1800 ; un-retract
G1 X156 Y177.5 E0.91798 F300 ; print line
G1 X196 Y177.5 E1.83596 F6000 ; print line
G1 X216 Y177.5 E0.91798 F300 ; print line
G1 E-0.75 F1800 ; retract
G1 X136 Y182.5 F30000 ; move to start
SET_PRESSURE_ADVANCE ADVANCE=0.07 ; set Pressure Advance
M117 K0.07 ; 
G1 E0.75 F1800 ; un-retract
G1 X156 Y182.5 E0.91798 F300 ; print line
G1 X196 Y182.5 E1.83596 F6000 ; print line
G1 X216 Y182.5 E0.91798 F300 ; print line
G1 E-0.75 F1800 ; retract
G1 X136 Y187.5 F30000 ; move to start
SET_PRESSURE_ADVANCE ADVANCE=0.075 ; set Pressure Advance
M117 K0.075 ; 
G1 E0.75 F1800 ; un-retract
G1 X156 Y187.5 E0.91798 F300 ; print line
G1 X196 Y187.5 E1.83596 F6000 ; print line
G1 X216 Y187.5 E0.91798 F300 ; print line
G1 E-0.75 F1800 ; retract
G1 X136 Y192.5 F30000 ; move to start
SET_PRESSURE_ADVANCE ADVANCE=0.08 ; set Pressure Advance
M117 K0.08 ; 
G1 E0.75 F1800 ; un-retract
G1 X156 Y192.5 E0.91798 F300 ; print line
G1 X196 Y192.5 E1.83596 F6000 ; print line
G1 X216 Y192.5 E0.91798 F300 ; print line
G1 E-0.75 F1800 ; retract
G1 X136 Y197.5 F30000 ; move to start
SET_PRESSURE_ADVANCE ADVANCE=0.085 ; set Pressure Advance
M117 K0.085 ; 
G1 E0.75 F1800 ; un-retract
G1 X156 Y197.5 E0.91798 F300 ; print line
G1 X196 Y197.5 E1.83596 F6000 ; print line
G1 X216 Y197.5 E0.91798 F300 ; print line
G1 E-0.75 F1800 ; retract
G1 X136 Y202.5 F30000 ; move to start
SET_PRESSURE_ADVANCE ADVANCE=0.09 ; set Pressure Advance
M117 K0.09 ; 
G1 E0.75 F1800 ; un-retract
G1 X156 Y202.5 E0.91798 F300 ; print line
G1 X196 Y202.5 E1.83596 F6000 ; print line
G1 X216 Y202.5 E0.91798 F300 ; print line
G1 E-0.75 F1800 ; retract
G1 X136 Y207.5 F30000 ; move to start
SET_PRESSURE_ADVANCE ADVANCE=0.095 ; set Pressure Advance
M117 K0.095 ; 
G1 E0.75 F1800 ; un-retract
G1 X156 Y207.5 E0.91798 F300 ; print line
G1 X196 Y207.5 E1.83596 F6000 ; print line
G1 X216 Y207.5 E0.91798 F300 ; print line
G1 E-0.75 F1800 ; retract
G1 X136 Y212.5 F30000 ; move to start
;
; Mark the test area for reference
M117 K0
SET_PRESSURE_ADVANCE ADVANCE=0 ; Set Pressure Advance 0
G1 X156 Y217.5 F30000 ; move to start
G1 E0.75 F1800 ; un-retract
G1 X156 Y237.5 E0.91798 F300 ; print line
G1 E-0.75 F1800 ; retract
G1 X196 Y217.5 F30000 ; move to start
G1 E0.75 F1800 ; un-retract
G1 X196 Y237.5 E0.91798 F300 ; print line
G1 E-0.75 F1800 ; retract
G1 Z0.35 F300 ; zHop
;
; print K-values
;
G1 X218 Y110.5 F30000 ; move to start
G1 Z0.25 F300 ; zHop
G1 E0.75 F1800 ; un-retract
G1 X220 Y110.5 E0.0918 F300 ; 0
G1 X220 Y112.5 E0.0918 F300 ; 0
G1 X220 Y114.5 E0.0918 F300 ; 0
G1 X218 Y114.5 E0.0918 F300 ; 0
G1 X218 Y112.5 E0.0918 F300 ; 0
G1 X218 Y110.5 E0.0918 F300 ; 0
G1 E-0.75 F1800 ; retract
G1 Z0.35 F300 ; zHop
G1 X218 Y120.5 F30000 ; move to start
G1 Z0.25 F300 ; zHop
G1 E0.75 F1800 ; un-retract
G1 X220 Y120.5 E0.0918 F300 ; 0
G1 X220 Y122.5 E0.0918 F300 ; 0
G1 X220 Y124.5 E0.0918 F300 ; 0
G1 X218 Y124.5 E0.0918 F300 ; 0
G1 X218 Y122.5 E0.0918 F300 ; 0
G1 X218 Y120.5 E0.0918 F300 ; 0
G1 E-0.75 F1800 ; retract
G1 X221 Y120.5 F30000 ; move to start
G1 E0.75 F1800 ; un-retract
G1 X221 Y120.9 E0.01836 F300 ; dot
G1 E-0.75 F1800 ; retract
G1 X222 Y120.5 F30000 ; move to start
G1 E0.75 F1800 ; un-retract
G1 X224 Y120.5 E0.0918 F300 ; 0
G1 X224 Y122.5 E0.0918 F300 ; 0
G1 X224 Y124.5 E0.0918 F300 ; 0
G1 X222 Y124.5 E0.0918 F300 ; 0
G1 X222 Y122.5 E0.0918 F300 ; 0
G1 X222 Y120.5 E0.0918 F300 ; 0
G1 E-0.75 F1800 ; retract
G1 X225 Y120.5 F30000 ; move to start
G1 E0.75 F1800 ; un-retract
G1 X225 Y122.5 E0.0918 F300 ; 1
G1 X225 Y124.5 E0.0918 F300 ; 1
G1 E-0.75 F1800 ; retract
G1 Z0.35 F300 ; zHop
G1 X218 Y130.5 F30000 ; move to start
G1 Z0.25 F300 ; zHop
G1 E0.75 F1800 ; un-retract
G1 X220 Y130.5 E0.0918 F300 ; 0
G1 X220 Y132.5 E0.0918 F300 ; 0
G1 X220 Y134.5 E0.0918 F300 ; 0
G1 X218 Y134.5 E0.0918 F300 ; 0
G1 X218 Y132.5 E0.0918 F300 ; 0
G1 X218 Y130.5 E0.0918 F300 ; 0
G1 E-0.75 F1800 ; retract
G1 X221 Y130.5 F30000 ; move to start
G1 E0.75 F1800 ; un-retract
G1 X221 Y130.9 E0.01836 F300 ; dot
G1 E-0.75 F1800 ; retract
G1 X222 Y130.5 F30000 ; move to start
G1 E0.75 F1800 ; un-retract
G1 X224 Y130.5 E0.0918 F300 ; 0
G1 X224 Y132.5 E0.0918 F300 ; 0
G1 X224 Y134.5 E0.0918 F300 ; 0
G1 X222 Y134.5 E0.0918 F300 ; 0
G1 X222 Y132.5 E0.0918 F300 ; 0
G1 X222 Y130.5 E0.0918 F300 ; 0
G1 E-0.75 F1800 ; retract
G1 X225 Y130.5 F30000 ; move to start
G1 E0.75 F1800 ; un-retract
G1 X225 Y132.5 F30000 ; move to start
G1 X225 Y134.5 F30000 ; move to start
G1 X227 Y134.5 E0.0918 F300 ; 2
G1 X227 Y132.5 E0.0918 F300 ; 2
G1 X225 Y132.5 E0.0918 F300 ; 2
G1 X225 Y130.5 E0.0918 F300 ; 2
G1 X227 Y130.5 E0.0918 F300 ; 2
G1 E-0.75 F1800 ; retract
G1 Z0.35 F300 ; zHop
G1 X218 Y140.5 F30000 ; move to start
G1 Z0.25 F300 ; zHop
G1 E0.75 F1800 ; un-retract
G1 X220 Y140.5 E0.0918 F300 ; 0
G1 X220 Y142.5 E0.0918 F300 ; 0
G1 X220 Y144.5 E0.0918 F300 ; 0
G1 X218 Y144.5 E0.0918 F300 ; 0
G1 X218 Y142.5 E0.0918 F300 ; 0
G1 X218 Y140.5 E0.0918 F300 ; 0
G1 E-0.75 F1800 ; retract
G1 X221 Y140.5 F30000 ; move to start
G1 E0.75 F1800 ; un-retract
G1 X221 Y140.9 E0.01836 F300 ; dot
G1 E-0.75 F1800 ; retract
G1 X222 Y140.5 F30000 ; move to start
G1 E0.75 F1800 ; un-retract
G1 X224 Y140.5 E0.0918 F300 ; 0
G1 X224 Y142.5 E0.0918 F300 ; 0
G1 X224 Y144.5 E0.0918 F300 ; 0
G1 X222 Y144.5 E0.0918 F300 ; 0
G1 X222 Y142.5 E0.0918 F300 ; 0
G1 X222 Y140.5 E0.0918 F300 ; 0
G1 E-0.75 F1800 ; retract
G1 X225 Y140.5 F30000 ; move to start
G1 E0.75 F1800 ; un-retract
G1 X225 Y142.5 F30000 ; move to start
G1 X225 Y144.5 F30000 ; move to start
G1 X227 Y144.5 E0.0918 F300 ; 3
G1 X227 Y142.5 E0.0918 F300 ; 3
G1 X227 Y140.5 E0.0918 F300 ; 3
G1 X225 Y140.5 E0.0918 F300 ; 3
G1 X225 Y142.5 F30000 ; move to start
G1 X227 Y142.5 E0.0918 F300 ; 3
G1 E-0.75 F1800 ; retract
G1 Z0.35 F300 ; zHop
G1 X218 Y150.5 F30000 ; move to start
G1 Z0.25 F300 ; zHop
G1 E0.75 F1800 ; un-retract
G1 X220 Y150.5 E0.0918 F300 ; 0
G1 X220 Y152.5 E0.0918 F300 ; 0
G1 X220 Y154.5 E0.0918 F300 ; 0
G1 X218 Y154.5 E0.0918 F300 ; 0
G1 X218 Y152.5 E0.0918 F300 ; 0
G1 X218 Y150.5 E0.0918 F300 ; 0
G1 E-0.75 F1800 ; retract
G1 X221 Y150.5 F30000 ; move to start
G1 E0.75 F1800 ; un-retract
G1 X221 Y150.9 E0.01836 F300 ; dot
G1 E-0.75 F1800 ; retract
G1 X222 Y150.5 F30000 ; move to start
G1 E0.75 F1800 ; un-retract
G1 X224 Y150.5 E0.0918 F300 ; 0
G1 X224 Y152.5 E0.0918 F300 ; 0
G1 X224 Y154.5 E0.0918 F300 ; 0
G1 X222 Y154.5 E0.0918 F300 ; 0
G1 X222 Y152.5 E0.0918 F300 ; 0
G1 X222 Y150.5 E0.0918 F300 ; 0
G1 E-0.75 F1800 ; retract
G1 X225 Y150.5 F30000 ; move to start
G1 E0.75 F1800 ; un-retract
G1 X225 Y152.5 F30000 ; move to start
G1 X225 Y154.5 F30000 ; move to start
G1 X225 Y152.5 E0.0918 F300 ; 4
G1 X227 Y152.5 E0.0918 F300 ; 4
G1 X227 Y154.5 F30000 ; move to start
G1 X227 Y152.5 E0.0918 F300 ; 4
G1 X227 Y150.5 E0.0918 F300 ; 4
G1 E-0.75 F1800 ; retract
G1 Z0.35 F300 ; zHop
G1 X218 Y160.5 F30000 ; move to start
G1 Z0.25 F300 ; zHop
G1 E0.75 F1800 ; un-retract
G1 X220 Y160.5 E0.0918 F300 ; 0
G1 X220 Y162.5 E0.0918 F300 ; 0
G1 X220 Y164.5 E0.0918 F300 ; 0
G1 X218 Y164.5 E0.0918 F300 ; 0
G1 X218 Y162.5 E0.0918 F300 ; 0
G1 X218 Y160.5 E0.0918 F300 ; 0
G1 E-0.75 F1800 ; retract
G1 X221 Y160.5 F30000 ; move to start
G1 E0.75 F1800 ; un-retract
G1 X221 Y160.9 E0.01836 F300 ; dot
G1 E-0.75 F1800 ; retract
G1 X222 Y160.5 F30000 ; move to start
G1 E0.75 F1800 ; un-retract
G1 X224 Y160.5 E0.0918 F300 ; 0
G1 X224 Y162.5 E0.0918 F300 ; 0
G1 X224 Y164.5 E0.0918 F300 ; 0
G1 X222 Y164.5 E0.0918 F300 ; 0
G1 X222 Y162.5 E0.0918 F300 ; 0
G1 X222 Y160.5 E0.0918 F300 ; 0
G1 E-0.75 F1800 ; retract
G1 X225 Y160.5 F30000 ; move to start
G1 E0.75 F1800 ; un-retract
G1 X227 Y160.5 E0.0918 F300 ; 5
G1 X227 Y162.5 E0.0918 F300 ; 5
G1 X225 Y162.5 E0.0918 F300 ; 5
G1 X225 Y164.5 E0.0918 F300 ; 5
G1 X227 Y164.5 E0.0918 F300 ; 5
G1 E-0.75 F1800 ; retract
G1 Z0.35 F300 ; zHop
G1 X218 Y170.5 F30000 ; move to start
G1 Z0.25 F300 ; zHop
G1 E0.75 F1800 ; un-retract
G1 X220 Y170.5 E0.0918 F300 ; 0
G1 X220 Y172.5 E0.0918 F300 ; 0
G1 X220 Y174.5 E0.0918 F300 ; 0
G1 X218 Y174.5 E0.0918 F300 ; 0
G1 X218 Y172.5 E0.0918 F300 ; 0
G1 X218 Y170.5 E0.0918 F300 ; 0
G1 E-0.75 F1800 ; retract
G1 X221 Y170.5 F30000 ; move to start
G1 E0.75 F1800 ; un-retract
G1 X221 Y170.9 E0.01836 F300 ; dot
G1 E-0.75 F1800 ; retract
G1 X222 Y170.5 F30000 ; move to start
G1 E0.75 F1800 ; un-retract
G1 X224 Y170.5 E0.0918 F300 ; 0
G1 X224 Y172.5 E0.0918 F300 ; 0
G1 X224 Y174.5 E0.0918 F300 ; 0
G1 X222 Y174.5 E0.0918 F300 ; 0
G1 X222 Y172.5 E0.0918 F300 ; 0
G1 X222 Y170.5 E0.0918 F300 ; 0
G1 E-0.75 F1800 ; retract
G1 X225 Y170.5 F30000 ; move to start
G1 E0.75 F1800 ; un-retract
G1 X225 Y172.5 F30000 ; move to start
G1 X227 Y172.5 E0.0918 F300 ; 6
G1 X227 Y170.5 E0.0918 F300 ; 6
G1 X225 Y170.5 E0.0918 F300 ; 6
G1 X225 Y172.5 E0.0918 F300 ; 6
G1 X225 Y174.5 E0.0918 F300 ; 6
G1 X227 Y174.5 E0.0918 F300 ; 6
G1 E-0.75 F1800 ; retract
G1 Z0.35 F300 ; zHop
G1 X218 Y180.5 F30000 ; move to start
G1 Z0.25 F300 ; zHop
G1 E0.75 F1800 ; un-retract
G1 X220 Y180.5 E0.0918 F300 ; 0
G1 X220 Y182.5 E0.0918 F300 ; 0
G1 X220 Y184.5 E0.0918 F300 ; 0
G1 X218 Y184.5 E0.0918 F300 ; 0
G1 X218 Y182.5 E0.0918 F300 ; 0
G1 X218 Y180.5 E0.0918 F300 ; 0
G1 E-0.75 F1800 ; retract
G1 X221 Y180.5 F30000 ; move to start
G1 E0.75 F1800 ; un-retract
G1 X221 Y180.9 E0.01836 F300 ; dot
G1 E-0.75 F1800 ; retract
G1 X222 Y180.5 F30000 ; move to start
G1 E0.75 F1800 ; un-retract
G1 X224 Y180.5 E0.0918 F300 ; 0
G1 X224 Y182.5 E0.0918 F300 ; 0
G1 X224 Y184.5 E0.0918 F300 ; 0
G1 X222 Y184.5 E0.0918 F300 ; 0
G1 X222 Y182.5 E0.0918 F300 ; 0
G1 X222 Y180.5 E0.0918 F300 ; 0
G1 E-0.75 F1800 ; retract
G1 X225 Y180.5 F30000 ; move to start
G1 E0.75 F1800 ; un-retract
G1 X225 Y182.5 F30000 ; move to start
G1 X225 Y184.5 F30000 ; move to start
G1 X227 Y184.5 E0.0918 F300 ; 7
G1 X227 Y182.5 E0.0918 F300 ; 7
G1 X227 Y180.5 E0.0918 F300 ; 7
G1 E-0.75 F1800 ; retract
G1 Z0.35 F300 ; zHop
G1 X218 Y190.5 F30000 ; move to start
G1 Z0.25 F300 ; zHop
G1 E0.75 F1800 ; un-retract
G1 X220 Y190.5 E0.0918 F300 ; 0
G1 X220 Y192.5 E0.0918 F300 ; 0
G1 X220 Y194.5 E0.0918 F300 ; 0
G1 X218 Y194.5 E0.0918 F300 ; 0
G1 X218 Y192.5 E0.0918 F300 ; 0
G1 X218 Y190.5 E0.0918 F300 ; 0
G1 E-0.75 F1800 ; retract
G1 X221 Y190.5 F30000 ; move to start
G1 E0.75 F1800 ; un-retract
G1 X221 Y190.9 E0.01836 F300 ; dot
G1 E-0.75 F1800 ; retract
G1 X222 Y190.5 F30000 ; move to start
G1 E0.75 F1800 ; un-retract
G1 X224 Y190.5 E0.0918 F300 ; 0
G1 X224 Y192.5 E0.0918 F300 ; 0
G1 X224 Y194.5 E0.0918 F300 ; 0
G1 X222 Y194.5 E0.0918 F300 ; 0
G1 X222 Y192.5 E0.0918 F300 ; 0
G1 X222 Y190.5 E0.0918 F300 ; 0
G1 E-0.75 F1800 ; retract
G1 X225 Y190.5 F30000 ; move to start
G1 E0.75 F1800 ; un-retract
G1 X225 Y192.5 F30000 ; move to start
G1 X227 Y192.5 E0.0918 F300 ; 8
G1 X227 Y190.5 E0.0918 F300 ; 8
G1 X225 Y190.5 E0.0918 F300 ; 8
G1 X225 Y192.5 E0.0918 F300 ; 8
G1 X225 Y194.5 E0.0918 F300 ; 8
G1 X227 Y194.5 E0.0918 F300 ; 8
G1 X227 Y192.5 E0.0918 F300 ; 8
G1 E-0.75 F1800 ; retract
G1 Z0.35 F300 ; zHop
G1 X218 Y200.5 F30000 ; move to start
G1 Z0.25 F300 ; zHop
G1 E0.75 F1800 ; un-retract
G1 X220 Y200.5 E0.0918 F300 ; 0
G1 X220 Y202.5 E0.0918 F300 ; 0
G1 X220 Y204.5 E0.0918 F300 ; 0
G1 X218 Y204.5 E0.0918 F300 ; 0
G1 X218 Y202.5 E0.0918 F300 ; 0
G1 X218 Y200.5 E0.0918 F300 ; 0
G1 E-0.75 F1800 ; retract
G1 X221 Y200.5 F30000 ; move to start
G1 E0.75 F1800 ; un-retract
G1 X221 Y200.9 E0.01836 F300 ; dot
G1 E-0.75 F1800 ; retract
G1 X222 Y200.5 F30000 ; move to start
G1 E0.75 F1800 ; un-retract
G1 X224 Y200.5 E0.0918 F300 ; 0
G1 X224 Y202.5 E0.0918 F300 ; 0
G1 X224 Y204.5 E0.0918 F300 ; 0
G1 X222 Y204.5 E0.0918 F300 ; 0
G1 X222 Y202.5 E0.0918 F300 ; 0
G1 X222 Y200.5 E0.0918 F300 ; 0
G1 E-0.75 F1800 ; retract
G1 X225 Y200.5 F30000 ; move to start
G1 E0.75 F1800 ; un-retract
G1 X227 Y200.5 E0.0918 F300 ; 9
G1 X227 Y202.5 E0.0918 F300 ; 9
G1 X225 Y202.5 E0.0918 F300 ; 9
G1 X225 Y204.5 E0.0918 F300 ; 9
G1 X227 Y204.5 E0.0918 F300 ; 9
G1 X227 Y202.5 E0.0918 F300 ; 9
G1 E-0.75 F1800 ; retract
G1 Z0.35 F300 ; zHop
;
; FINISH
;
PRINT_END

;
